…
```{r bnames, echo = FALSE, message = FALSE}
library(babynames)
```

### The data

Now that you know a little about the dataset, let's examine its contents. If you were to run `babynames` at your R console, you would get output that looks like this:

```{r echo = TRUE, eval = FALSE}
babynames

##  A tibble: 1,924,665 × 5
#     year sex   name          n   prop
#    <dbl> <chr> <chr>     <int>  <dbl>
#  1  1880 F     Mary       7065 0.0724
#  2  1880 F     Anna       2604 0.0267
#  3  1880 F     Emma       2003 0.0205
#  4  1880 F     Elizabeth  1939 0.0199
#  5  1880 F     Minnie     1746 0.0179
#  6  1880 F     Margaret   1578 0.0162
#  7  1880 F     Ida        1472 0.0151
#  8  1880 F     Alice      1414 0.0145
#  9  1880 F     Bertha     1320 0.0135
# 10  1880 F     Sarah      1288 0.0132
##  ℹ 1,924,655 more rows
##  ℹ Use `print(n = ...)` to see more rows
```
…
